[
    {
        "title": "线路1",
        "url": "http://xn--4bra.live/gg.json",
        "time": "2022-08-23 03:08:30"
    },
    {
        "title": "线路2",
        "url": "https://box.okeybox.top/tv/shyi.json",
        "time": "2022-08-23 03:08:30"
    },
    {
        "title": "线路3",
        "url": "https://box.okeybox.top/tv/vyo2.json",
        "time": "2022-08-23 03:06:27"
    },
    {
        "title": "线路4",
        "url": "https://box.okeybox.top/tv/5gup.json",
        "time": "2022-08-23 03:03:33"
    },
    {
        "title": "线路5",
        "url": "https://box.okeybox.top/tv/fj0p.json",
        "time": "2022-08-23 03:17:14"
    },
    {
        "title": "线路6",
        "url": "https://box.okeybox.top/tv/2wti.json",
        "time": "2022-08-23 03:56:54"
    },
    {
        "title": "线路7",
        "url": "https://box.okeybox.top/tv/64u1.json",
        "time": "2022-08-23 03:15:26"
    },
    {
        "title": "线路8",
        "url": "https://box.okeybox.top/tv/o5oh.json",
        "time": "2022-08-23 03:11:53"
    },
    {
        "title": "线路9",
        "url": "https://box.okeybox.top/tv/iw3y.json",
        "time": "2022-08-23 03:06:31"
    },
    {
        "title": "线路10",
        "url": "https://box.okeybox.top/tv/sx39.json",
        "time": "2022-08-23 01:27:55"
    },
    {
        "title": "线路11",
        "url": "https://box.okeybox.top/tv/91qn.json",
        "time": "2022-08-23 01:27:55"
    },
    {
        "url": "http://52bsj.vip:81/api/v3/file/get/29899/box2.json?sign=3cVyKZQr3lFAwdB3HK-A7h33e0MnmG6lLB9oWlvSNnM%3D%3A0",
        "title": "线路12",
        "time": "2022-08-23 03:15:40"
    },
    {
        "url": "https://gitea.com/Yoursmile/TVBox/raw/branch/main/XC.json",
        "title": "线路13",
        "time": "2022-08-23 03:15:40"
    },
    {
        "url": "https://gitea.com/hongdeng98/YH/raw/branch/main/Mao0820.json",
        "title": "线路14",
        "time": "2022-08-23 03:06:18"
    },
    {
        "url": "https://ghproxy.com/https://raw.githubusercontent.com/chengxueli818913/maoTV/main/44.txt",
        "title": "线路15",
        "time": "2022-08-23 03:16:29"
    },
    {
        "url": "https://download.kstore.space/download/2863/01.txt",
        "title": "线路16",
        "time": "2022-08-23 03:07:36"
    },
    {
        "url": "http://52bsj.vip:81/api/v3/file/get/29908/18.json?sign=6dFDJtF30CNlCiznjsQmwbsUbxdtz9edLVjbDc5lC8E%3D%3A0",
        "title": "线路17",
        "time": "2022-08-23 03:09:26"
    },
    {
        "url": "https://gitea.com/yuegu09/aziy/raw/branch/main/0821.json",
        "title": "线路18",
        "time": "2022-08-23 03:12:57"
    },
    {
        "url": "https://gitea.com/yuegu09/aziy/raw/branch/main/box.json",
        "title": "线路19",
        "time": "2022-08-23 13:11:21"
    },
    {
        "url": "https://gitea.com/hongdeng98/TVBox/raw/branch/main/tvboxjt.json",
        "title": "线路20",
        "time": "2022-08-23 03:06:31"
    },
    {
        "url": "https://gitea.com/abkie/TVBoxqq/src/branch/main/Sunny.json",
        "title": "线路21",
        "time": "2022-08-23 03:06:31"
    },
    {
        "url": "https://gitea.com/zhanghong/TVBOXZY/raw/branch/main/tvbox.json",
        "title": "线路22",
        "time": "2022-08-22 13:06:31"
    },
    {
        "url": "http://maoyingshi.cc/tvbox/云星日记/ali.m3u8",
        "title": "线路23",
        "time": "2022-08-22 13:06:31"
    },
    {
        "url": "http://120.53.102.254/tvb/",
        "title": "线路24",
        "time": "2022-08-22 13:06:31"
    },
    {
        "url": "https://gitea.com/Yoursmile/TVBox/raw/branch/main/XC.json",
        "title": "线路25",
        "time": "2022-08-22 13:06:31"
    }
]